<svg width="62" height="62" viewBox="0 0 62 62" fill="none" xmlns="http://www.w3.org/2000/svg">
<path d="M31 62C48.1208 62 62 48.1208 62 31C62 13.8792 48.1208 0 31 0C13.8792 0 0 13.8792 0 31C0 48.1208 13.8792 62 31 62Z" fill="#3B5998"/>
<path d="M38.7933 32.2135H33.2618V52.4786H24.881V32.2135H20.895V25.0916H24.881V20.4828C24.881 17.1871 26.4465 12.0263 33.3364 12.0263L39.5443 12.0523V18.9654H35.04C34.3012 18.9654 33.2623 19.3345 33.2623 20.9067V25.0982H39.5255L38.7933 32.2135Z" fill="white"/>
</svg>
