<svg width="62" height="62" viewBox="0 0 62 62" fill="none" xmlns="http://www.w3.org/2000/svg">
<g clip-path="url(#clip0)">
<path d="M31 61.999C48.1208 61.999 62 48.1198 62 30.999C62 13.8782 48.1208 -0.00100708 31 -0.00100708C13.8792 -0.00100708 0 13.8782 0 30.999C0 48.1198 13.8792 61.999 31 61.999Z" fill="#DC4E41"/>
<path d="M10.793 32.3875C10.683 37.7212 14.3568 42.8113 19.4103 44.4713C24.1705 46.0705 30.0231 44.8741 33.1906 40.7976C35.5033 37.9412 36.0288 34.1332 35.7785 30.5755C31.7019 30.539 27.6253 30.5512 23.5548 30.5573C23.5482 32.0095 23.5549 33.4562 23.5609 34.9085C26.0018 34.9759 28.4432 34.9449 30.884 34.9941C30.2679 37.1056 28.8643 39.0707 26.734 39.8333C22.6209 41.6458 17.3729 39.2779 16.0787 34.9632C14.5165 30.8313 17.0739 25.8452 21.2964 24.6433C23.9146 23.7221 26.6119 24.7593 28.8521 26.1204C29.9872 25.0583 31.0493 23.9232 32.0926 22.776C29.5473 20.6463 26.2764 19.3405 22.9138 19.6273C16.3163 19.7058 10.5427 25.7966 10.793 32.3875Z" fill="#DC4E41"/>
<path d="M43.7121 26.8941C43.6999 28.1088 43.6872 29.3295 43.6811 30.5435C42.4604 30.5557 41.2464 30.5618 40.0317 30.5679C40.0317 31.7825 40.0317 32.9905 40.0317 34.2051C41.2464 34.2112 42.4671 34.2173 43.6811 34.23C43.6933 35.4446 43.6933 36.6587 43.7054 37.8794C44.914 37.8794 46.1286 37.8733 47.3427 37.8794C47.3493 36.6587 47.3549 35.4446 47.3676 34.2239C48.5816 34.2178 49.8023 34.2117 51.017 34.2057C51.017 32.991 51.017 31.783 51.017 30.5684C49.8029 30.5623 48.5822 30.5563 47.3676 30.5441C47.3609 29.3295 47.3493 28.1088 47.3427 26.8947C46.1286 26.8941 44.9201 26.8941 43.7121 26.8941Z" fill="#DC4E41"/>
<path d="M10.793 32.387C10.5427 25.7961 16.3157 19.7053 22.9133 19.6263C26.2759 19.3395 29.5473 20.6453 32.092 22.775C31.0482 23.9228 29.9861 25.0573 28.8516 26.1194C26.6113 24.7583 23.914 23.7211 21.2958 24.6423C17.0728 25.8447 14.5153 30.8309 16.0781 34.9622C17.3723 39.2769 22.6204 41.6448 26.7334 39.8323C28.8632 39.0697 30.2673 37.1046 30.8835 34.9931C28.4426 34.9445 26.0012 34.9749 23.5604 34.9075C23.5543 33.4552 23.5482 32.0085 23.5543 30.5563C27.6248 30.5502 31.7013 30.538 35.7779 30.5745C36.0282 34.1327 35.5033 37.9407 33.1901 40.7966C30.0225 44.8731 24.1705 46.0695 19.4098 44.4703C14.3573 42.8108 10.683 37.7208 10.793 32.387Z" fill="white"/>
<path d="M43.7121 26.8941C44.9206 26.8941 46.1286 26.8941 47.3427 26.8941C47.3493 28.1088 47.3609 29.3295 47.3676 30.5435C48.5816 30.5557 49.8023 30.5618 51.017 30.5679C51.017 31.7825 51.017 32.9905 51.017 34.2051C49.8029 34.2112 48.5822 34.2173 47.3676 34.2233C47.3554 35.444 47.3493 36.6581 47.3427 37.8788C46.1286 37.8727 44.9134 37.8788 43.7054 37.8788C43.6938 36.6581 43.6938 35.444 43.6811 34.2294C42.4671 34.2167 41.2464 34.2112 40.0317 34.2046C40.0317 32.9899 40.0317 31.7819 40.0317 30.5673C41.2464 30.5612 42.461 30.5552 43.6811 30.543C43.6872 29.3295 43.6994 28.1088 43.7121 26.8941Z" fill="white"/>
</g>
<defs>
<clipPath id="clip0">
<rect width="62" height="62" fill="white"/>
</clipPath>
</defs>
</svg>
