<svg width="32" height="32" viewBox="0 0 32 32" fill="none" xmlns="http://www.w3.org/2000/svg">
<path d="M16 3C8.832 3 3 8.832 3 16C3 23.168 8.832 29 16 29C23.168 29 29 23.168 29 16C29 8.832 23.168 3 16 3ZM16 5C22.086 5 27 9.914 27 16C27 22.086 22.086 27 16 27C9.914 27 5 22.086 5 16C5 9.914 9.914 5 16 5ZM16.719 9.594L15.28 11L19.28 15H9V17H19.281L15.281 21L16.719 22.406L23.125 16L16.719 9.594Z" fill="#616161"/>
</svg>
