<svg width="32" height="32" viewBox="0 0 32 32" fill="none" xmlns="http://www.w3.org/2000/svg">
<path d="M16 3C8.832 3 3 8.832 3 16C3 23.168 8.832 29 16 29C23.168 29 29 23.168 29 16C29 8.832 23.168 3 16 3ZM16 5C16.338 5 16.67 5.02 17 5.05V6H19V5.426C21.4301 6.11992 23.5482 7.62732 25 9.696V13L26 15V16H27C27 16.366 26.98 16.729 26.945 17.086C26.936 17.182 26.916 17.274 26.905 17.369C26.871 17.632 26.837 17.893 26.785 18.15C26.766 18.246 26.741 18.34 26.719 18.436C26.661 18.69 26.599 18.942 26.523 19.189C26.497 19.274 26.467 19.357 26.439 19.441C26.3566 19.695 26.2649 19.9458 26.164 20.193C26.134 20.265 26.101 20.335 26.07 20.406C25.958 20.661 25.84 20.912 25.71 21.156C25.68 21.216 25.646 21.273 25.613 21.33C25.3014 21.891 24.9414 22.4237 24.537 22.922L24.447 23.033C24.253 23.266 24.047 23.489 23.836 23.705C23.805 23.736 23.776 23.77 23.744 23.801C23.5267 24.016 23.3005 24.2219 23.066 24.418C23.033 24.446 23.005 24.475 22.971 24.502C22.737 24.694 22.491 24.872 22.242 25.045C22.203 25.072 22.168 25.103 22.129 25.129C21.889 25.289 21.641 25.436 21.389 25.579C20.1921 26.2527 18.8788 26.6945 17.518 26.881L21.529 23.857L22.629 22.757L24 20V19L22 18H21L19 16H17L16 17V18L15 19V21L17 22.6L15.023 26.951C9.414 26.453 5 21.735 5 16C5 12.592 6.559 9.541 9 7.521V8L8 9V11.2L9 15L14 17H15V16L12 15V13H15L16 10.5L18 9V8L15 6L13.562 5.281C14.3616 5.09668 15.1794 5.00243 16 5ZM15 14V15H17V14H15Z" fill="#616161"/>
</svg>
