<svg width="32" height="32" viewBox="0 0 32 32" fill="none" xmlns="http://www.w3.org/2000/svg">
<path d="M19 3C13.488 3 9.00001 7.488 9.00001 13C9.00001 15.395 9.84001 17.59 11.25 19.313L3.28101 27.28L4.72001 28.72L12.688 20.751C14.4675 22.2099 16.6989 23.005 19 23C24.512 23 29 18.512 29 13C29 7.488 24.512 3 19 3ZM19 5C23.43 5 27 8.57 27 13C27 17.43 23.43 21 19 21C14.57 21 11 17.43 11 13C11 8.57 14.57 5 19 5Z" fill="#616161"/>
</svg>
