<svg width="38" height="38" viewBox="0 0 38 38" fill="none" xmlns="http://www.w3.org/2000/svg">
<path d="M34.1356 7.08478H4.50848V23.1865H34.1356V7.08478H34.1356ZM11.5932 8.10618L12.5039 9.01691L7.29666 14.2242L6.38592 13.3134L11.5932 8.10618ZM7.08477 17.6565L6.17403 16.7458L14.8135 8.10618L15.7243 9.01691L7.08477 17.6565Z" fill="#73C9C9"/>
<path d="M4.2937 24.4746L1.61017 30.9153H36.4625L34.3155 24.4746H4.2937ZM12.2373 30.2712H9.0169V28.983H12.2373V30.2712ZM24.4746 30.2712H13.5254V28.983H24.4745V30.2712H24.4746ZM28.9831 30.2712H25.7627V28.983H28.9831V30.2712Z" fill="#D8D8D8"/>
<path d="M37.967 31.3556L35.4238 23.7258V6.4407C35.4238 6.08467 35.1354 5.79663 34.7797 5.79663H3.8644C3.50874 5.79663 3.22033 6.08467 3.22033 6.4407V23.702L0.0497055 31.3115C-0.0333453 31.5102 -0.0113023 31.7373 0.10819 31.9165C0.227682 32.0957 0.428666 32.2034 0.644049 32.2034H37.3559C37.5628 32.2034 37.7572 32.104 37.8783 31.936C37.9993 31.7681 38.0324 31.5518 37.967 31.3556ZM4.50847 7.08477H34.1356V23.1865H4.50847V7.08477ZM1.61015 30.9152L4.29368 24.4745H34.3155L36.4625 30.9152H1.61015Z" fill="#314E55"/>
<path d="M7.29673 14.2236L12.5038 9.01645L11.5931 8.10571L6.38599 13.3128L7.29673 14.2236Z" fill="#314E55"/>
<path d="M7.08487 17.6564L15.7242 9.01703L14.8135 8.10629L6.17413 16.7457L7.08487 17.6564Z" fill="#314E55"/>
<path d="M24.4745 28.983H13.5254V30.2711H24.4745V28.983Z" fill="#314E55"/>
<path d="M28.9831 28.983H25.7628V30.2711H28.9831V28.983Z" fill="#314E55"/>
<path d="M12.2373 28.983H9.01697V30.2711H12.2373V28.983Z" fill="#314E55"/>
</svg>
