<svg width="32" height="32" viewBox="0 0 32 32" fill="none" xmlns="http://www.w3.org/2000/svg">
<path d="M16 5.33333H26.6667V13.3333H16V5.33333ZM16 28V14.6667H26.6667V28H16ZM4 28V20H14.6667V28H4ZM4 18.6667V5.33333H14.6667V18.6667H4ZM5.33333 6.66666V17.3333H13.3333V6.66666H5.33333ZM17.3333 6.66666V12H25.3333V6.66666H17.3333ZM17.3333 16V26.6667H25.3333V16H17.3333ZM5.33333 21.3333V26.6667H13.3333V21.3333H5.33333Z" fill="#616161"/>
</svg>
