<svg width="24" height="24" viewBox="0 0 24 24" fill="none" xmlns="http://www.w3.org/2000/svg">
<path d="M21.8 13H20V21H13V17.67L15.79 14.88L16.5 15C17.0569 15 17.5911 14.7787 17.9849 14.3849C18.3787 13.9911 18.6 13.4569 18.6 12.9C18.6 12.343 18.3787 11.8089 17.9849 11.4151C17.5911 11.0212 17.0569 10.8 16.5 10.8C15.943 10.8 15.4089 11.0212 15.0151 11.4151C14.6212 11.8089 14.4 12.343 14.4 12.9L14.5 13.61L13 15.13V9.64999C13.66 9.28999 14.1 8.59999 14.1 7.79999C14.1 7.24303 13.8787 6.70889 13.4849 6.31506C13.0911 5.92124 12.5569 5.69999 12 5.69999C11.443 5.69999 10.9089 5.92124 10.5151 6.31506C10.1212 6.70889 9.89998 7.24303 9.89998 7.79999C9.89998 8.59999 10.34 9.28999 11 9.64999V15.13L9.49998 13.61L9.59998 12.9C9.59998 12.343 9.37873 11.8089 8.98491 11.4151C8.59108 11.0212 8.05694 10.8 7.49998 10.8C6.94303 10.8 6.40888 11.0212 6.01506 11.4151C5.62123 11.8089 5.39998 12.343 5.39998 12.9C5.39998 13.4569 5.62123 13.9911 6.01506 14.3849C6.40888 14.7787 6.94303 15 7.49998 15L8.20998 14.88L11 17.67V21H3.99998V13H2.24998C1.82998 13 1.41998 13 1.41998 12.79C1.42998 12.57 1.84998 12.15 2.27998 11.72L11 2.99999C11.33 2.66999 11.67 2.32999 12 2.32999C12.33 2.32999 12.67 2.66999 13 2.99999L17 6.99999V5.99999H19V8.99999L21.78 11.78C22.18 12.18 22.59 12.59 22.6 12.8C22.6 13 22.2 13 21.8 13V13ZM7.49998 12C7.73868 12 7.9676 12.0948 8.13638 12.2636C8.30516 12.4324 8.39998 12.6613 8.39998 12.9C8.39998 13.1387 8.30516 13.3676 8.13638 13.5364C7.9676 13.7052 7.73868 13.8 7.49998 13.8C7.26129 13.8 7.03237 13.7052 6.86359 13.5364C6.6948 13.3676 6.59998 13.1387 6.59998 12.9C6.59998 12.6613 6.6948 12.4324 6.86359 12.2636C7.03237 12.0948 7.26129 12 7.49998 12V12ZM16.5 12C17 12 17.4 12.4 17.4 12.9C17.4 13.4 17 13.8 16.5 13.8C16.2613 13.8 16.0324 13.7052 15.8636 13.5364C15.6948 13.3676 15.6 13.1387 15.6 12.9C15.6 12.6613 15.6948 12.4324 15.8636 12.2636C16.0324 12.0948 16.2613 12 16.5 12V12ZM12 6.89999C12.5 6.89999 12.9 7.29999 12.9 7.79999C12.9 8.29999 12.5 8.69999 12 8.69999C11.5 8.69999 11.1 8.29999 11.1 7.79999C11.1 7.29999 11.5 6.89999 12 6.89999Z" fill="#616161"/>
</svg>
